<?xml version="1.0" encoding="UTF-8" standalone="no"?>
<svg
   viewBox="0 0 36 36"
   xmlns="http://www.w3.org/2000/svg"
   xmlns:svg="http://www.w3.org/2000/svg">
  <rect
     style="fill:#ffffff;fill-opacity:1"
     width="36"
     height="36"
     x="0"
     y="0" />
  <path
     fill="#FFF"
     d="M6 18L18 7v9.166L28 7v22l-10-9.167V29z"
     style="fill:#1a1a1a" />
</svg>
