<?xml version="1.0" encoding="UTF-8" standalone="no"?>
<!-- Created with Inkscape (http://www.inkscape.org/) -->

<svg
   width="46.359283mm"
   height="76.91272mm"
   viewBox="0 0 46.359283 76.912719"
   version="1.1"
   id="svg5"
   inkscape:export-filename="septa el letters.png"
   inkscape:export-xdpi="76.009209"
   inkscape:export-ydpi="76.009209"
   inkscape:version="1.2.2 (b0a8486541, 2022-12-01)"
   sodipodi:docname="septa el.svg"
   xmlns:inkscape="http://www.inkscape.org/namespaces/inkscape"
   xmlns:sodipodi="http://sodipodi.sourceforge.net/DTD/sodipodi-0.dtd"
   xmlns="http://www.w3.org/2000/svg"
   xmlns:svg="http://www.w3.org/2000/svg">
  <sodipodi:namedview
     id="namedview7"
     pagecolor="#000000"
     bordercolor="#666666"
     borderopacity="1.0"
     inkscape:showpageshadow="2"
     inkscape:pageopacity="0"
     inkscape:pagecheckerboard="0"
     inkscape:deskcolor="#d1d1d1"
     inkscape:document-units="mm"
     showgrid="false"
     inkscape:zoom="0.1767767"
     inkscape:cx="82.024386"
     inkscape:cy="1745.1395"
     inkscape:window-width="1920"
     inkscape:window-height="1014"
     inkscape:window-x="0"
     inkscape:window-y="0"
     inkscape:window-maximized="1"
     inkscape:current-layer="layer1" />
  <defs
     id="defs2" />
  <g
     inkscape:label="Layer 1"
     inkscape:groupmode="layer"
     id="layer1"
     transform="translate(-354.1164,-913.71371)">
    <g
       id="g84265"
       transform="translate(-76.031344,252.59485)"
       inkscape:export-filename="../../SEPTA El/panel.svg"
       inkscape:export-xdpi="76.009209"
       inkscape:export-ydpi="76.009209">
      <path
         id="rect331-94-3-0-7-6-4-0-1"
         style="fill:#ffcc00;stroke:#000000;stroke-width:0.529167;stroke-linejoin:bevel;stroke-dasharray:none;stop-color:#000000"
         d="m 430.41234,722.49032 h 15.2767 v 15.2767 h -15.2767 z" />
      <path
         id="path624-6-8-88-5"
         style="fill:#ffcc00;stroke:#000000;stroke-width:0.529167;stroke-linejoin:bevel;stroke-dasharray:none;stop-color:#000000"
         d="m 445.68904,737.76696 a 15.276695,15.276695 0 0 1 -15.2767,-15.2767 h 15.2767 z" />
      <path
         id="rect331-94-3-0-7-6-4-0"
         style="fill:#ffcc00;stroke:#000000;stroke-width:0.529167;stroke-linejoin:bevel;stroke-dasharray:none;stop-color:#000000"
         d="M 430.41231,661.38345 H 445.689 v 15.2767 h -15.27669 z" />
      <path
         id="rect331-94-3-0-7-6-4-0-8"
         style="fill:#ffcc00;stroke:#000000;stroke-width:0.529167;stroke-linejoin:bevel;stroke-dasharray:none;stop-color:#000000"
         d="m 460.96574,661.38345 h 15.2767 v 15.2767 h -15.2767 z" />
      <path
         id="rect331-94-3-0-7-6-4-0-5"
         style="fill:#ffcc00;stroke:#000000;stroke-width:0.529167;stroke-linejoin:bevel;stroke-dasharray:none;stop-color:#000000"
         d="m 460.96574,722.49032 h 15.2767 v 15.2767 h -15.2767 z" />
      <path
         id="path624-6-7-3-6-1"
         style="fill:#ffcc00;stroke:#000000;stroke-width:0.529167;stroke-linejoin:bevel;stroke-dasharray:none;stop-color:#000000"
         d="m 430.41232,676.6633 a 15.276695,15.276695 0 0 1 15.27669,-15.2767 v 15.2767 z" />
      <path
         id="rect331-4-2-3-4"
         style="fill:#ffcc00;stroke:#000000;stroke-width:0.529167;stroke-linejoin:bevel;stroke-dasharray:none;stop-color:#000000"
         d="m 460.96574,707.21359 h 15.2767 v 15.2767 h -15.2767 z" />
      <path
         id="rect331-15-78-3-7"
         style="fill:#ffcc00;stroke:#000000;stroke-width:0.529167;stroke-linejoin:bevel;stroke-dasharray:none;stop-color:#000000"
         d="m 445.68901,722.48715 h 15.2767 v 15.2767 h -15.2767 z" />
      <path
         id="path624-5-7-3-1"
         style="fill:#ffcc00;stroke:#000000;stroke-width:0.529167;stroke-linejoin:bevel;stroke-dasharray:none;stop-color:#000000"
         d="m 476.24244,722.48715 a 15.276695,15.276695 0 0 1 -15.2767,15.27669 v -15.27669 z" />
      <path
         id="path624-6-5-6-4-3-1"
         style="fill:#ffcc00;stroke:#000000;stroke-width:0.529167;stroke-linejoin:bevel;stroke-dasharray:none;stop-color:#000000"
         d="m 460.96574,661.38343 a 15.276695,15.276695 0 0 1 15.2767,15.27669 h -15.2767 z" />
      <path
         id="rect331-97-1-1-8-1"
         style="fill:#ffcc00;stroke:#000000;stroke-width:0.529167;stroke-linejoin:bevel;stroke-dasharray:none;stop-color:#000000"
         d="m 430.41232,707.21359 h 15.2767 v 15.2767 h -15.2767 z" />
      <path
         id="rect331-31-6-5-47-0"
         style="fill:#ffcc00;stroke:#000000;stroke-width:0.529167;stroke-linejoin:bevel;stroke-dasharray:none;stop-color:#000000"
         d="m 430.41232,676.66018 h 15.2767 v 15.2767 h -15.2767 z" />
      <path
         id="rect331-94-3-0-7-6-4"
         style="fill:#ffcc00;stroke:#000000;stroke-width:0.529167;stroke-linejoin:bevel;stroke-dasharray:none;stop-color:#000000"
         d="m 445.68901,661.38345 h 15.2767 v 15.2767 h -15.2767 z" />
      <path
         id="rect331-3-5-1-2"
         style="fill:#ffcc00;fill-opacity:1;stroke:#000000;stroke-width:0.529167;stroke-linejoin:bevel;stroke-dasharray:none;stroke-opacity:1;stop-color:#000000"
         d="m 460.96566,676.66024 -7.6383,7.63829 7.6383,7.63829 z" />
      <path
         id="rect331-3-5-1-2-1"
         style="fill:#ffcc00;fill-opacity:1;stroke:#000000;stroke-width:0.529167;stroke-linejoin:bevel;stroke-dasharray:none;stroke-opacity:1;stop-color:#000000"
         d="m 460.96564,691.93682 -7.63828,-7.63829 -7.6383,7.63829 z" />
      <path
         id="rect331-3-5-1-2-9"
         style="fill:#ffcc00;fill-opacity:1;stroke:#000000;stroke-width:0.529167;stroke-linejoin:bevel;stroke-dasharray:none;stroke-opacity:1;stop-color:#000000"
         d="m 445.68906,691.93682 7.6383,-7.63829 -7.6383,-7.63829 z" />
      <path
         id="rect331-3-5-1-2-6"
         style="fill:#ffcc00;fill-opacity:1;stroke:#000000;stroke-width:0.529167;stroke-linejoin:bevel;stroke-dasharray:none;stroke-opacity:1;stop-color:#000000"
         d="m 445.68907,676.66024 7.63829,7.63829 7.63829,-7.63829 z" />
      <path
         id="rect331-3-5-1-2-0"
         style="fill:#ffcc00;fill-opacity:1;stroke:#000000;stroke-width:0.529167;stroke-linejoin:bevel;stroke-dasharray:none;stroke-opacity:1;stop-color:#000000"
         d="m 460.96566,691.93691 -7.6383,7.6383 7.6383,7.63828 z" />
      <path
         id="rect331-3-5-1-2-1-8"
         style="fill:#ffcc00;fill-opacity:1;stroke:#000000;stroke-width:0.529167;stroke-linejoin:bevel;stroke-dasharray:none;stroke-opacity:1;stop-color:#000000"
         d="m 460.96564,707.21349 -7.63828,-7.63828 -7.6383,7.63828 z" />
      <path
         id="rect331-3-5-1-2-9-1"
         style="fill:#ffcc00;fill-opacity:1;stroke:#000000;stroke-width:0.529167;stroke-linejoin:bevel;stroke-dasharray:none;stroke-opacity:1;stop-color:#000000"
         d="m 445.68906,707.21349 7.6383,-7.63828 -7.6383,-7.6383 z" />
      <path
         id="rect331-3-5-1-2-6-0"
         style="fill:#ffcc00;fill-opacity:1;stroke:#000000;stroke-width:0.529167;stroke-linejoin:bevel;stroke-dasharray:none;stroke-opacity:1;stop-color:#000000"
         d="m 445.68907,691.93691 7.63829,7.6383 7.63829,-7.6383 z" />
      <path
         id="rect331-3-5-1-2-1-9"
         style="fill:#ffcc00;fill-opacity:1;stroke:#000000;stroke-width:0.529167;stroke-linejoin:bevel;stroke-dasharray:none;stroke-opacity:1;stop-color:#000000"
         d="m 460.96563,722.49008 -7.63828,-7.63829 -7.6383,7.63829 z" />
      <path
         id="rect331-3-5-1-2-9-7"
         style="fill:#ffcc00;fill-opacity:1;stroke:#000000;stroke-width:0.529167;stroke-linejoin:bevel;stroke-dasharray:none;stroke-opacity:1;stop-color:#000000"
         d="m 445.68905,722.49008 7.6383,-7.63829 -7.6383,-7.63829 z" />
      <path
         id="rect331-3-5-1-2-4"
         style="fill:#ffcc00;fill-opacity:1;stroke:#000000;stroke-width:0.529167;stroke-linejoin:bevel;stroke-dasharray:none;stroke-opacity:1;stop-color:#000000"
         d="m 476.2424,691.93687 -7.6383,7.63829 7.6383,7.63829 z" />
      <path
         id="rect331-3-5-1-2-1-6"
         style="fill:#ffcc00;fill-opacity:1;stroke:#000000;stroke-width:0.529167;stroke-linejoin:bevel;stroke-dasharray:none;stroke-opacity:1;stop-color:#000000"
         d="m 476.24238,707.21345 -7.63828,-7.63829 -7.6383,7.63829 z" />
      <path
         id="rect331-3-5-1-2-9-3"
         style="fill:#ffcc00;fill-opacity:1;stroke:#000000;stroke-width:0.529167;stroke-linejoin:bevel;stroke-dasharray:none;stroke-opacity:1;stop-color:#000000"
         d="m 460.9658,707.21345 7.6383,-7.63829 -7.6383,-7.63829 z" />
      <path
         id="rect331-3-5-1-2-6-7"
         style="fill:#ffcc00;fill-opacity:1;stroke:#000000;stroke-width:0.529167;stroke-linejoin:bevel;stroke-dasharray:none;stroke-opacity:1;stop-color:#000000"
         d="m 460.96581,691.93687 7.63829,7.63829 7.63829,-7.63829 z" />
      <path
         id="rect331-3-5-1-2-7"
         style="fill:#ffcc00;fill-opacity:1;stroke:#000000;stroke-width:0.529167;stroke-linejoin:bevel;stroke-dasharray:none;stroke-opacity:1;stop-color:#000000"
         d="m 445.68898,691.93691 -7.6383,7.6383 7.6383,7.63828 z" />
      <path
         id="rect331-3-5-1-2-1-4"
         style="fill:#ffcc00;fill-opacity:1;stroke:#000000;stroke-width:0.529167;stroke-linejoin:bevel;stroke-dasharray:none;stroke-opacity:1;stop-color:#000000"
         d="m 445.68896,707.21349 -7.63828,-7.63828 -7.6383,7.63828 z" />
      <path
         id="rect331-3-5-1-2-9-9"
         style="fill:#ffcc00;fill-opacity:1;stroke:#000000;stroke-width:0.529167;stroke-linejoin:bevel;stroke-dasharray:none;stroke-opacity:1;stop-color:#000000"
         d="m 430.41238,707.21349 7.6383,-7.63828 -7.6383,-7.6383 z" />
      <path
         id="rect331-3-5-1-2-6-1"
         style="fill:#ffcc00;fill-opacity:1;stroke:#000000;stroke-width:0.529167;stroke-linejoin:bevel;stroke-dasharray:none;stroke-opacity:1;stop-color:#000000"
         d="m 430.41239,691.93691 7.63829,7.6383 7.63829,-7.6383 z" />
      <path
         id="rect331-31-6-5-62-2-8-2-65"
         style="fill:#ffcc00;stroke:#000000;stroke-width:0.529167;stroke-linecap:square;stroke-linejoin:bevel;stroke-dasharray:none;stop-color:#000000"
         d="m 460.9657,707.21345 v 15.27668 L 445.689,707.21345 v 0 z"
         sodipodi:nodetypes="ccccc" />
      <path
         id="rect331-31-6-5-62-2-8-2-6-43-9-5-8-33"
         style="fill:#ffcc00;stroke:#000000;stroke-width:0.529167;stroke-linecap:square;stroke-linejoin:round;stroke-dasharray:none;stop-color:#000000"
         d="m 430.41233,707.21519 7.6445,15.2735 h 7.63209 v -15.27343 z"
         sodipodi:nodetypes="ccccc" />
      <path
         id="rect331-7-6-9-8-2-4-9-3-9-9-0-8"
         style="fill:#ffcc00;stroke:#000000;stroke-width:0.529167;stroke-linecap:square;stroke-linejoin:round;stroke-dasharray:none;stroke-opacity:1;stop-color:#000000"
         d="m 438.05683,722.48869 7.63209,15.24765 v -15.24765 z" />
      <path
         id="rect331-31-6-5-62-2-8-2-7"
         style="fill:#ffcc00;stroke:#000000;stroke-width:0.529167;stroke-linecap:square;stroke-linejoin:bevel;stroke-dasharray:none;stop-color:#000000"
         d="m 476.24244,691.93687 h -15.27669 l 15.27669,-15.2767 v 0 z"
         sodipodi:nodetypes="ccccc" />
      <path
         id="rect331-31-6-5-62-2-8-2-1"
         style="fill:#ffcc00;stroke:#000000;stroke-width:0.529167;stroke-linecap:square;stroke-linejoin:bevel;stroke-dasharray:none;stop-color:#000000"
         d="m 460.96575,676.66017 v 15.27669 l 15.2767,-15.27669 v 0 z"
         sodipodi:nodetypes="ccccc" />
      <path
         id="rect331-31-6-5-62-2-8-2-6-43-9-5-8-5"
         style="fill:#ffcc00;stroke:#000000;stroke-width:0.529167;stroke-linecap:square;stroke-linejoin:round;stroke-dasharray:none;stop-color:#000000"
         d="m 476.24233,707.21515 -7.6445,15.2735 h -7.63209 v -15.27343 z"
         sodipodi:nodetypes="ccccc" />
      <path
         id="rect331-7-6-9-8-2-4-9-3-9-9-0-1"
         style="fill:#ffcc00;stroke:#000000;stroke-width:0.529167;stroke-linecap:square;stroke-linejoin:round;stroke-dasharray:none;stroke-opacity:1;stop-color:#000000"
         d="m 468.59783,722.48865 -7.63209,15.24765 v -15.24765 z" />
    </g>
  </g>
</svg>
